<svg width="115" height="115" viewBox="0 0 115 115" fill="none" xmlns="http://www.w3.org/2000/svg">
<circle cx="57.5" cy="57.5" r="57.5" fill="#7D2AEB"/>
<path d="M82.625 82.625L80 61.625H74.75L80.875 82.625H82.625Z" fill="#7D2AEB"/>
<path d="M39.75 61.625H34.5L31.875 82.625H33.625L39.75 61.625Z" fill="#7D2AEB"/>
<path d="M70.375 56.375V65.125H66.875V54.625H68.625C69.0887 54.6264 69.533 54.8112 69.8609 55.1391C70.1888 55.467 70.3736 55.9113 70.375 56.375Z" fill="#7D2AEB"/>
<path d="M63.375 45C63.375 43.3755 62.7297 41.8176 61.581 40.669C60.4324 39.5203 58.8745 38.875 57.25 38.875C55.6255 38.875 54.0676 39.5203 52.919 40.669C51.7703 41.8176 51.125 43.3755 51.125 45V47.625H63.375V45Z" fill="#7D2AEB"/>
<path d="M55.5 67.75H59V74.75H55.5V67.75Z" fill="#7D2AEB"/>
<path d="M47.625 54.625V65.125H44.125V56.375C44.1264 55.9113 44.3112 55.467 44.6391 55.1391C44.967 54.8112 45.4113 54.6264 45.875 54.625H47.625Z" fill="#7D2AEB"/>
<path d="M83.5 61.625V58.125C83.5 57.8929 83.4078 57.6704 83.2437 57.5063C83.0796 57.3422 82.8571 57.25 82.625 57.25H71.25V56.375C71.2479 55.6794 70.9707 55.013 70.4789 54.5211C69.987 54.0293 69.3206 53.7521 68.625 53.75H67.75V52H72.125C72.8206 51.9979 73.487 51.7207 73.9789 51.2289C74.4707 50.737 74.7479 50.0706 74.75 49.375V33.625C74.7479 32.9294 74.4707 32.263 73.9789 31.7711C73.487 31.2793 72.8206 31.0021 72.125 31H42.375C41.6794 31.0021 41.013 31.2793 40.5211 31.7711C40.0293 32.263 39.7521 32.9294 39.75 33.625V49.375C39.7521 50.0706 40.0293 50.737 40.5211 51.2289C41.013 51.7207 41.6794 51.9979 42.375 52H46.75V53.75H45.875C45.1794 53.7521 44.513 54.0293 44.0211 54.5211C43.5293 55.013 43.2521 55.6794 43.25 56.375V57.25H31.875C31.6429 57.25 31.4204 57.3422 31.2563 57.5063C31.0922 57.6704 31 57.8929 31 58.125V61.625C31 61.8571 31.0922 62.0796 31.2563 62.2437C31.4204 62.4078 31.6429 62.5 31.875 62.5H33.5113L31.0087 82.52C30.9919 82.6422 31.002 82.7666 31.0383 82.8845C31.0746 83.0023 31.1362 83.1109 31.2188 83.2025C31.3 83.2967 31.4008 83.3721 31.5141 83.4234C31.6275 83.4748 31.7506 83.5009 31.875 83.5H33.625C33.8143 83.5 33.9985 83.4386 34.15 83.325C34.3015 83.2114 34.412 83.0518 34.465 82.87L40.4062 62.5H43.25V65.125C43.25 65.3571 43.3422 65.5796 43.5063 65.7437C43.6704 65.9078 43.8929 66 44.125 66H46.75V67.75C46.75 67.9821 46.8422 68.2046 47.0063 68.3687C47.1704 68.5328 47.3929 68.625 47.625 68.625H54.625V73.875H48.5C48.2679 73.875 48.0454 73.9672 47.8813 74.1313C47.7172 74.2954 47.625 74.5179 47.625 74.75V78.4075C47.0412 78.6139 46.5491 79.0201 46.2358 79.5542C45.9225 80.0883 45.8081 80.716 45.9128 81.3263C46.0175 81.9366 46.3346 82.4902 46.808 82.8893C47.2815 83.2885 47.8808 83.5074 48.5 83.5074C49.1192 83.5074 49.7185 83.2885 50.192 82.8893C50.6654 82.4902 50.9825 81.9366 51.0872 81.3263C51.1919 80.716 51.0775 80.0883 50.7642 79.5542C50.4509 79.0201 49.9588 78.6139 49.375 78.4075V75.625H56.375V78.4075C55.7912 78.6139 55.2991 79.0201 54.9858 79.5542C54.6725 80.0883 54.5581 80.716 54.6628 81.3263C54.7675 81.9366 55.0846 82.4902 55.558 82.8893C56.0315 83.2885 56.6308 83.5074 57.25 83.5074C57.8692 83.5074 58.4685 83.2885 58.942 82.8893C59.4154 82.4902 59.7325 81.9366 59.8372 81.3263C59.9419 80.716 59.8275 80.0883 59.5142 79.5542C59.2009 79.0201 58.7088 78.6139 58.125 78.4075V75.625H65.125V78.4075C64.5412 78.6139 64.0491 79.0201 63.7358 79.5542C63.4225 80.0883 63.3081 80.716 63.4128 81.3263C63.5175 81.9366 63.8346 82.4902 64.308 82.8893C64.7815 83.2885 65.3808 83.5074 66 83.5074C66.6192 83.5074 67.2185 83.2885 67.692 82.8893C68.1654 82.4902 68.4825 81.9366 68.5872 81.3263C68.6919 80.716 68.5775 80.0883 68.2642 79.5542C67.9509 79.0201 67.4588 78.6139 66.875 78.4075V74.75C66.875 74.5179 66.7828 74.2954 66.6187 74.1313C66.4546 73.9672 66.2321 73.875 66 73.875H59.875V68.625H66.875C67.1071 68.625 67.3296 68.5328 67.4937 68.3687C67.6578 68.2046 67.75 67.9821 67.75 67.75V66H70.375C70.6071 66 70.8296 65.9078 70.9937 65.7437C71.1578 65.5796 71.25 65.3571 71.25 65.125V62.5H74.0938L80.035 82.87C80.088 83.0518 80.1985 83.2114 80.35 83.325C80.5015 83.4386 80.6857 83.5 80.875 83.5H82.625C82.7494 83.5009 82.8725 83.4748 82.9859 83.4234C83.0992 83.3721 83.2 83.2967 83.2812 83.2025C83.3638 83.1109 83.4254 83.0023 83.4617 82.8845C83.498 82.7666 83.5081 82.6422 83.4913 82.52L80.9888 62.5H82.625C82.8571 62.5 83.0796 62.4078 83.2437 62.2437C83.4078 62.0796 83.5 61.8571 83.5 61.625ZM32.9688 81.75H32.8638L35.27 62.5H38.5863L32.9688 81.75ZM43.25 60.75H32.75V59H43.25V60.75ZM46.75 64.25H45V56.375C45 56.1429 45.0922 55.9204 45.2563 55.7563C45.4204 55.5922 45.6429 55.5 45.875 55.5H46.75V64.25ZM48.5 81.75C48.3269 81.75 48.1578 81.6987 48.0139 81.6025C47.87 81.5064 47.7578 81.3697 47.6916 81.2098C47.6254 81.05 47.6081 80.874 47.6418 80.7043C47.6756 80.5346 47.7589 80.3787 47.8813 80.2563C48.0037 80.1339 48.1596 80.0506 48.3293 80.0168C48.499 79.9831 48.675 80.0004 48.8348 80.0666C48.9947 80.1328 49.1314 80.245 49.2275 80.3889C49.3237 80.5328 49.375 80.7019 49.375 80.875C49.375 81.1071 49.2828 81.3296 49.1187 81.4937C48.9546 81.6578 48.7321 81.75 48.5 81.75ZM66 80C66.1731 80 66.3422 80.0513 66.4861 80.1475C66.63 80.2436 66.7422 80.3803 66.8084 80.5402C66.8746 80.7 66.8919 80.876 66.8582 81.0457C66.8244 81.2154 66.7411 81.3713 66.6187 81.4937C66.4963 81.6161 66.3404 81.6994 66.1707 81.7332C66.001 81.7669 65.825 81.7496 65.6652 81.6834C65.5053 81.6172 65.3686 81.505 65.2725 81.3611C65.1763 81.2172 65.125 81.0481 65.125 80.875C65.125 80.6429 65.2172 80.4204 65.3813 80.2563C65.5454 80.0922 65.7679 80 66 80ZM57.25 81.75C57.0769 81.75 56.9078 81.6987 56.7639 81.6025C56.62 81.5064 56.5078 81.3697 56.4416 81.2098C56.3754 81.05 56.3581 80.874 56.3918 80.7043C56.4256 80.5346 56.5089 80.3787 56.6313 80.2563C56.7537 80.1339 56.9096 80.0506 57.0793 80.0168C57.249 79.9831 57.425 80.0004 57.5848 80.0666C57.7447 80.1328 57.8814 80.245 57.9775 80.3889C58.0737 80.5328 58.125 80.7019 58.125 80.875C58.125 81.1071 58.0328 81.3296 57.8687 81.4937C57.7046 81.6578 57.4821 81.75 57.25 81.75ZM58.125 73.875H56.375V68.625H58.125V73.875ZM66 66.875H48.5V49.375C48.5 49.1429 48.5922 48.9204 48.7563 48.7563C48.9204 48.5922 49.1429 48.5 49.375 48.5H65.125C65.3571 48.5 65.5796 48.5922 65.7437 48.7563C65.9078 48.9204 66 49.1429 66 49.375V66.875ZM52 46.75V45C52 43.6076 52.5531 42.2723 53.5377 41.2877C54.5223 40.3031 55.8576 39.75 57.25 39.75C58.6424 39.75 59.9777 40.3031 60.9623 41.2877C61.9469 42.2723 62.5 43.6076 62.5 45V46.75H52ZM65.125 46.75H64.25V45C64.25 43.1435 63.5125 41.363 62.1997 40.0503C60.887 38.7375 59.1065 38 57.25 38C55.3935 38 53.613 38.7375 52.3003 40.0503C50.9875 41.363 50.25 43.1435 50.25 45V46.75H49.375C48.6794 46.7521 48.013 47.0293 47.5211 47.5211C47.0293 48.013 46.7521 48.6794 46.75 49.375V50.25H42.375C42.1429 50.25 41.9204 50.1578 41.7563 49.9937C41.5922 49.8296 41.5 49.6071 41.5 49.375V33.625C41.5 33.3929 41.5922 33.1704 41.7563 33.0063C41.9204 32.8422 42.1429 32.75 42.375 32.75H72.125C72.3571 32.75 72.5796 32.8422 72.7437 33.0063C72.9078 33.1704 73 33.3929 73 33.625V49.375C73 49.6071 72.9078 49.8296 72.7437 49.9937C72.5796 50.1578 72.3571 50.25 72.125 50.25H67.75V49.375C67.7479 48.6794 67.4707 48.013 66.9789 47.5211C66.487 47.0293 65.8206 46.7521 65.125 46.75ZM69.5 64.25H67.75V55.5H68.625C68.8571 55.5 69.0796 55.5922 69.2437 55.7563C69.4078 55.9204 69.5 56.1429 69.5 56.375V64.25ZM81.6362 81.75H81.5312L75.9137 62.5H79.23L81.6362 81.75ZM81.75 60.75H71.25V59H81.75V60.75Z" fill="white"/>
<path d="M69.5 38.875H71.25V35.375C71.25 35.1429 71.1578 34.9204 70.9937 34.7563C70.8296 34.5922 70.6071 34.5 70.375 34.5H66.875V36.25H69.5V38.875Z" fill="white"/>
<path d="M69.5 40.625H71.25V42.375H69.5V40.625Z" fill="white"/>
</svg>
