<svg width="115" height="115" viewBox="0 0 115 115" fill="none" xmlns="http://www.w3.org/2000/svg">
<circle cx="57.5" cy="57.5" r="57.5" fill="#7D2AEB"/>
<path d="M82.625 70.375H77.375C78.0712 70.375 78.7389 70.6516 79.2312 71.1438C79.7234 71.6361 80 72.3038 80 73C80 73.6962 79.7234 74.3639 79.2312 74.8562C78.7389 75.3484 78.0712 75.625 77.375 75.625H36.25V70.375H31.875V35.375H35.375V66.875H79.125V35.375H82.625V70.375Z" fill="#7D2AEB"/>
<path d="M74.75 59.875L73 52.875L71.25 59.875H74.75Z" fill="#7D2AEB"/>
<path d="M73 52.875C73.9665 52.875 74.75 52.0915 74.75 51.125C74.75 50.1585 73.9665 49.375 73 49.375C72.0335 49.375 71.25 50.1585 71.25 51.125C71.25 52.0915 72.0335 52.875 73 52.875Z" fill="#7D2AEB"/>
<path d="M71.25 42.375L69.5 43.0312V48.4737C68.9389 48.8028 68.3539 49.0894 67.75 49.3313C64.3945 50.5861 60.8318 51.1947 57.25 51.125C53.6682 51.1947 50.1055 50.5861 46.75 49.3313C46.1461 49.0894 45.5611 48.8028 45 48.4737V43.0312L43.25 42.375L57.25 37.125L71.25 42.375Z" fill="#7D2AEB"/>
<path d="M82.625 34.5H80V31.875C80 31.6429 79.9078 31.4204 79.7437 31.2563C79.5796 31.0922 79.3571 31 79.125 31H60.75C60.0685 31.0026 59.3971 31.1646 58.7894 31.4731C58.1816 31.7815 57.6545 32.2278 57.25 32.7763C56.8455 32.2278 56.3184 31.7815 55.7106 31.4731C55.1029 31.1646 54.4315 31.0026 53.75 31H35.375C35.1429 31 34.9204 31.0922 34.7563 31.2563C34.5922 31.4204 34.5 31.6429 34.5 31.875V34.5H31.875C31.6429 34.5 31.4204 34.5922 31.2563 34.7563C31.0922 34.9204 31 35.1429 31 35.375V70.375C31 70.6071 31.0922 70.8296 31.2563 70.9937C31.4204 71.1578 31.6429 71.25 31.875 71.25H35.375V75.6425C34.6406 76.192 34.098 76.9589 33.8244 77.8343C33.5507 78.7097 33.5598 79.6491 33.8504 80.5191C34.141 81.389 34.6984 82.1452 35.4433 82.6804C36.1882 83.2155 37.0828 83.5023 38 83.5H78.25C78.4821 83.5 78.7046 83.4078 78.8687 83.2437C79.0328 83.0796 79.125 82.8571 79.125 82.625V76.01C79.6552 75.706 80.096 75.2678 80.4032 74.7394C80.7103 74.211 80.8731 73.6112 80.875 73C80.8726 72.3831 80.7033 71.7784 80.385 71.25H82.625C82.8571 71.25 83.0796 71.1578 83.2437 70.9937C83.4078 70.8296 83.5 70.6071 83.5 70.375V35.375C83.5 35.1429 83.4078 34.9204 83.2437 34.7563C83.0796 34.5922 82.8571 34.5 82.625 34.5ZM58.125 35.375C58.1271 34.6794 58.4043 34.013 58.8961 33.5211C59.388 33.0293 60.0544 32.7521 60.75 32.75H78.25V66H58.125V51.9825C61.5271 51.9676 64.8992 51.3453 68.0825 50.145C68.7245 49.8828 69.3473 49.5758 69.9462 49.2263C70.0762 49.148 70.1838 49.0378 70.2589 48.906C70.334 48.7742 70.374 48.6254 70.375 48.4738V43.635L71.4075 43.25H72.125V48.6575C71.63 48.8315 71.1986 49.1502 70.8869 49.5723C70.5752 49.9943 70.3974 50.5003 70.3767 51.0246C70.3559 51.5489 70.4931 52.0674 70.7706 52.5128C71.048 52.9581 71.4528 53.3099 71.9325 53.5225L70.4012 59.665C70.3699 59.7942 70.3678 59.9289 70.395 60.059C70.4223 60.1892 70.4782 60.3117 70.5588 60.4175C70.6412 60.5218 70.7462 60.6059 70.866 60.6635C70.9858 60.7211 71.1171 60.7507 71.25 60.75H74.75C74.8829 60.7507 75.0142 60.7211 75.134 60.6635C75.2538 60.6059 75.3588 60.5218 75.4412 60.4175C75.5218 60.3117 75.5777 60.1892 75.605 60.059C75.6322 59.9289 75.6301 59.7942 75.5988 59.665L74.0675 53.5225C74.5472 53.3099 74.952 52.9581 75.2294 52.5128C75.5069 52.0674 75.6441 51.5489 75.6233 51.0246C75.6026 50.5003 75.4248 49.9943 75.1131 49.5723C74.8014 49.1502 74.37 48.8315 73.875 48.6575V42.375C73.875 42.1429 73.7828 41.9204 73.6187 41.7563C73.4546 41.5922 73.2321 41.5 73 41.5H71.4075L58.125 36.5213V35.375ZM57.25 50.25C53.7817 50.3214 50.3314 49.7335 47.0825 48.5175C46.669 48.3554 46.2658 48.1684 45.875 47.9575V44.2913L56.9438 48.4475C57.1419 48.5175 57.3581 48.5175 57.5562 48.4475L68.625 44.2913V47.9575C68.2326 48.1678 67.8296 48.3577 67.4175 48.5263C64.1668 49.7348 60.7174 50.3196 57.25 50.25ZM73 52C72.8269 52 72.6578 51.9487 72.5139 51.8525C72.37 51.7564 72.2578 51.6197 72.1916 51.4598C72.1254 51.3 72.1081 51.124 72.1418 50.9543C72.1756 50.7846 72.2589 50.6287 72.3813 50.5063C72.5037 50.3839 72.6596 50.3006 72.8293 50.2668C72.999 50.2331 73.175 50.2504 73.3348 50.3166C73.4947 50.3828 73.6314 50.495 73.7275 50.6389C73.8237 50.7828 73.875 50.9519 73.875 51.125C73.875 51.3571 73.7828 51.5796 73.6187 51.7437C73.4546 51.9078 73.2321 52 73 52ZM73.63 59H72.37L73 56.48L73.63 59ZM57.25 38.0613L66.4288 41.5H57.25V43.25H66.4288L57.25 46.6888L45.7438 42.375L57.25 38.0613ZM36.25 32.75H53.75C54.4456 32.7521 55.112 33.0293 55.6039 33.5211C56.0957 34.013 56.3729 34.6794 56.375 35.375V36.5213L42.9437 41.5525C42.7748 41.6138 42.6289 41.7256 42.5257 41.8728C42.4226 42.02 42.3673 42.1953 42.3673 42.375C42.3673 42.5547 42.4226 42.73 42.5257 42.8772C42.6289 43.0244 42.7748 43.1362 42.9437 43.1975L44.125 43.635V48.4738C44.126 48.6254 44.166 48.7742 44.2411 48.906C44.3162 49.0378 44.4238 49.148 44.5538 49.2263C45.1511 49.5763 45.7741 49.8805 46.4175 50.1363C49.5991 51.3439 52.972 51.9692 56.375 51.9825V66H36.25V32.75ZM77.375 81.75H38C37.3038 81.75 36.6361 81.4734 36.1438 80.9812C35.6516 80.4889 35.375 79.8212 35.375 79.125C35.375 78.4288 35.6516 77.7611 36.1438 77.2688C36.6361 76.7766 37.3038 76.5 38 76.5H77.375V81.75ZM77.375 74.75H37.125V71.25H77.375C77.8391 71.25 78.2842 71.4344 78.6124 71.7626C78.9406 72.0908 79.125 72.5359 79.125 73C79.125 73.4641 78.9406 73.9093 78.6124 74.2374C78.2842 74.5656 77.8391 74.75 77.375 74.75ZM81.75 69.5H32.75V36.25H34.5V66.875C34.5 67.1071 34.5922 67.3296 34.7563 67.4937C34.9204 67.6578 35.1429 67.75 35.375 67.75H79.125C79.3571 67.75 79.5796 67.6578 79.7437 67.4937C79.9078 67.3296 80 67.1071 80 66.875V36.25H81.75V69.5Z" fill="white"/>
<path d="M39.75 78.25H74.75V80H39.75V78.25Z" fill="white"/>
</svg>
