<svg width="164" height="30" viewBox="0 0 164 30" fill="none" xmlns="http://www.w3.org/2000/svg">
<path d="M0 0H19.8881C19.8881 0 34.3636 0 34.3636 15.4589C34.3636 29.9124 19.8881 29.9124 19.8881 29.9124H0V0Z" fill="#7D2AEB"/>
<path d="M6.1741 19.9414V9.82173H8.5736C9.67772 9.82173 10.4971 10.0152 11.0318 10.402C11.5708 10.7846 11.9751 11.3649 12.2446 12.143C12.5141 12.9211 12.6488 13.8426 12.6488 14.9076C12.6488 15.9161 12.5054 16.8029 12.2185 17.5679C11.9359 18.3287 11.5339 18.9155 11.0122 19.3284C10.4906 19.7371 9.67772 19.9414 8.5736 19.9414H6.1741ZM7.49122 18.8264H8.37147C9.26259 18.8264 9.89724 18.6677 10.2754 18.3504C10.658 18.0331 10.9296 17.594 11.0905 17.0333C11.2557 16.4682 11.3382 15.6901 11.3382 14.699C11.3382 13.7296 11.2426 12.9841 11.0514 12.4625C10.8601 11.9409 10.5862 11.5409 10.2298 11.2627C9.87333 10.9802 9.28867 10.8389 8.4758 10.8389H7.49122V18.8264Z" fill="white"/>
<path d="M20.2516 19.4589C19.2822 19.9196 18.365 20.15 17.5 20.15C16.8436 20.15 16.2568 19.987 15.7395 19.661C15.2222 19.335 14.8071 18.8698 14.4941 18.2656C14.1855 17.6571 14.0312 17.0072 14.0312 16.316C14.0312 15.651 14.179 15.012 14.4746 14.399C14.7701 13.7861 15.1831 13.3101 15.7134 12.9711C16.2437 12.6277 16.8349 12.456 17.487 12.456C18.352 12.456 19.0453 12.7646 19.567 13.3819C20.0929 13.9991 20.3559 14.9511 20.3559 16.2378V16.4986H15.3352C15.3352 17.0028 15.4396 17.4636 15.6482 17.8809C15.8612 18.2982 16.1394 18.6112 16.4828 18.8199C16.8262 19.0285 17.2175 19.1328 17.6565 19.1328C18.4389 19.1328 19.304 18.872 20.2516 18.3504V19.4589ZM15.407 15.5923H19.0388V15.4162C19.0388 14.8207 18.8932 14.3469 18.602 13.9948C18.3107 13.6427 17.9217 13.4666 17.4348 13.4666C16.9436 13.4666 16.5176 13.647 16.1568 14.0078C15.8004 14.3643 15.5504 14.8924 15.407 15.5923Z" fill="white"/>
<path d="M24.5811 19.9414L21.4188 12.6581H22.7489L25.2462 18.4221L27.7957 12.6581H29.0085L25.82 19.9414H24.5811Z" fill="white"/>
<path d="M44.0315 18.8264V19.9414H38.5674V9.82173H43.9271V10.8389H39.8845V14.2751H43.5229V15.2858H39.8845V18.8264H44.0315Z" fill="white"/>
<path d="M48.6414 19.9414L45.479 12.6581H46.8091L49.3064 18.4221L51.8559 12.6581H53.0687L49.8802 19.9414H48.6414Z" fill="white"/>
<path d="M57.2939 20.1435C56.2507 20.1435 55.416 19.7805 54.7901 19.0546C54.1641 18.3243 53.8512 17.4049 53.8512 16.2965C53.8512 15.188 54.1641 14.2708 54.7901 13.5449C55.416 12.8189 56.2507 12.456 57.2939 12.456C58.3328 12.456 59.1653 12.8189 59.7912 13.5449C60.4172 14.2708 60.7302 15.188 60.7302 16.2965C60.7302 17.4049 60.4172 18.3243 59.7912 19.0546C59.1653 19.7805 58.3328 20.1435 57.2939 20.1435ZM57.2939 19.1328C57.9416 19.1328 58.4567 18.8807 58.8392 18.3765C59.2218 17.8722 59.413 17.1789 59.413 16.2965C59.413 15.4184 59.2218 14.7272 58.8392 14.223C58.4567 13.7187 57.9416 13.4666 57.2939 13.4666C56.6419 13.4666 56.1246 13.7187 55.7421 14.223C55.3595 14.7272 55.1683 15.4184 55.1683 16.2965C55.1683 17.1789 55.3595 17.8722 55.7421 18.3765C56.1246 18.8807 56.6419 19.1328 57.2939 19.1328Z" fill="white"/>
<path d="M64.2707 19.9414V10.4346H62.0929V9.41746H65.4835V18.9307H67.7591V19.9414H64.2707Z" fill="white"/>
<path d="M76.3269 12.6581V19.9414H75.1141V18.3439C74.7229 18.9437 74.2882 19.3937 73.81 19.6936C73.3319 19.9935 72.8537 20.1435 72.3756 20.1435C71.9496 20.1435 71.5583 20.0305 71.2019 19.8044C70.8498 19.574 70.6042 19.2741 70.4651 18.9046C70.326 18.5308 70.2564 17.8049 70.2564 16.7268V12.6581H71.4692V16.8768C71.4692 17.5766 71.5018 18.0396 71.567 18.2656C71.6366 18.4873 71.7605 18.6699 71.9387 18.8133C72.1213 18.9568 72.3169 19.0285 72.5255 19.0285C72.9515 19.0285 73.408 18.8286 73.8948 18.4286C74.386 18.0244 74.7924 17.5158 75.1141 16.9029V12.6581H76.3269Z" fill="white"/>
<path d="M84.4448 19.6479C83.8753 19.887 83.4624 20.0283 83.2059 20.0718C82.9494 20.1196 82.7017 20.1435 82.4626 20.1435C81.954 20.1435 81.4889 20.0457 81.0672 19.8501C80.6456 19.6545 80.3261 19.3654 80.1087 18.9829C79.8957 18.6003 79.7892 18.0092 79.7892 17.2093V14.2751H77.97V13.2645H79.7892V10.3303H81.002V13.2645H84.2427V14.2751H81.002V17.1898C81.002 17.7766 81.0716 18.1917 81.2107 18.4352C81.3498 18.6742 81.5345 18.8503 81.7649 18.9633C81.9996 19.0763 82.2757 19.1328 82.593 19.1328C83.1798 19.1328 83.7971 18.9481 84.4448 18.5786V19.6479Z" fill="white"/>
<path d="M88.4157 19.9414V13.6688H86.3944V12.6581H89.6285V18.9307H91.6563V19.9414H88.4157ZM88.2136 10.0304C88.2136 9.75652 88.307 9.55222 88.4939 9.41746C88.6809 9.28271 88.8569 9.21533 89.0221 9.21533C89.1916 9.21533 89.3699 9.28271 89.5568 9.41746C89.7437 9.55222 89.8372 9.75652 89.8372 10.0304C89.8372 10.2999 89.7437 10.502 89.5568 10.6368C89.3699 10.7715 89.1916 10.8389 89.0221 10.8389C88.8569 10.8389 88.6809 10.7715 88.4939 10.6368C88.307 10.502 88.2136 10.2999 88.2136 10.0304Z" fill="white"/>
<path d="M97.3943 20.1435C96.351 20.1435 95.5164 19.7805 94.8904 19.0546C94.2645 18.3243 93.9515 17.4049 93.9515 16.2965C93.9515 15.188 94.2645 14.2708 94.8904 13.5449C95.5164 12.8189 96.351 12.456 97.3943 12.456C98.4332 12.456 99.2656 12.8189 99.8916 13.5449C100.518 14.2708 100.831 15.188 100.831 16.2965C100.831 17.4049 100.518 18.3243 99.8916 19.0546C99.2656 19.7805 98.4332 20.1435 97.3943 20.1435ZM97.3943 19.1328C98.042 19.1328 98.5571 18.8807 98.9396 18.3765C99.3221 17.8722 99.5134 17.1789 99.5134 16.2965C99.5134 15.4184 99.3221 14.7272 98.9396 14.223C98.5571 13.7187 98.042 13.4666 97.3943 13.4666C96.7422 13.4666 96.225 13.7187 95.8424 14.223C95.4599 14.7272 95.2686 15.4184 95.2686 16.2965C95.2686 17.1789 95.4599 17.8722 95.8424 18.3765C96.225 18.8807 96.7422 19.1328 97.3943 19.1328Z" fill="white"/>
<path d="M102.415 19.9414V12.6581H103.628V14.2491C103.976 13.6883 104.395 13.2493 104.886 12.932C105.377 12.6146 105.869 12.456 106.36 12.456C106.79 12.456 107.181 12.5712 107.533 12.8015C107.886 13.0276 108.131 13.3253 108.27 13.6948C108.414 14.0643 108.485 14.7903 108.485 15.8726V19.9414H107.273V15.7227C107.273 15.0228 107.238 14.562 107.168 14.3404C107.103 14.1143 106.979 13.9296 106.797 13.7861C106.618 13.6427 106.423 13.5709 106.21 13.5709C105.784 13.5709 105.325 13.7731 104.834 14.1773C104.347 14.5816 103.945 15.088 103.628 15.6966V19.9414H102.415Z" fill="white"/>
<path d="M118.468 19.7262V18.4873C119.511 18.9829 120.459 19.2306 121.311 19.2306C121.667 19.2306 122.009 19.1633 122.335 19.0285C122.661 18.8894 122.906 18.6916 123.072 18.4352C123.241 18.1787 123.326 17.9005 123.326 17.6005C123.326 17.2484 123.211 16.9203 122.98 16.616C122.75 16.3073 122.317 15.9683 121.683 15.5988L121.018 15.2141L120.346 14.8294C119.164 14.1295 118.572 13.2601 118.572 12.2212C118.572 11.4605 118.835 10.8215 119.361 10.3042C119.892 9.78261 120.718 9.52179 121.839 9.52179C122.561 9.52179 123.258 9.62612 123.932 9.83477V10.9628C123.189 10.6759 122.465 10.5324 121.761 10.5324C121.2 10.5324 120.746 10.6802 120.398 10.9758C120.055 11.2714 119.883 11.6279 119.883 12.0452C119.883 12.4581 120.016 12.8015 120.281 13.0754C120.546 13.3493 120.885 13.6014 121.298 13.8318L121.807 14.1382L122.439 14.5229L122.974 14.8359C124.082 15.514 124.636 16.366 124.636 17.3919C124.636 18.1743 124.352 18.8459 123.782 19.4067C123.213 19.9674 122.3 20.2478 121.044 20.2478C120.644 20.2478 120.261 20.213 119.896 20.1435C119.535 20.0783 119.059 19.9392 118.468 19.7262Z" fill="white"/>
<path d="M132.604 19.7327C131.791 20.0066 131.018 20.1435 130.283 20.1435C129.553 20.1435 128.903 19.9761 128.333 19.6414C127.768 19.3024 127.327 18.8459 127.01 18.2721C126.693 17.694 126.534 17.0376 126.534 16.303C126.534 15.1989 126.892 14.2817 127.61 13.5514C128.331 12.8211 129.201 12.456 130.218 12.456C130.97 12.456 131.765 12.5972 132.604 12.8798V14.0469C131.757 13.6601 130.998 13.4666 130.329 13.4666C129.885 13.4666 129.468 13.5775 129.077 13.7992C128.686 14.0165 128.383 14.3577 128.17 14.8229C127.957 15.288 127.851 15.7661 127.851 16.2573C127.851 16.9137 128.055 17.5397 128.464 18.1352C128.877 18.7307 129.522 19.0285 130.4 19.0285C130.666 19.0285 130.926 19.0111 131.183 18.9763C131.439 18.9372 131.913 18.8003 132.604 18.5656V19.7327Z" fill="white"/>
<path d="M134.495 19.9414V9.41746H135.708V14.2491C136.056 13.6883 136.475 13.2493 136.966 12.932C137.458 12.6146 137.949 12.456 138.44 12.456C138.853 12.456 139.229 12.5625 139.568 12.7755C139.912 12.9841 140.151 13.2384 140.285 13.5383C140.394 13.7687 140.468 14.0143 140.507 14.2751C140.546 14.5316 140.566 15.0641 140.566 15.8726V19.9414H139.353V15.7227C139.353 15.0228 139.318 14.562 139.249 14.3404C139.183 14.1143 139.06 13.9296 138.877 13.7861C138.699 13.6427 138.503 13.5709 138.29 13.5709C137.864 13.5709 137.406 13.7731 136.914 14.1773C136.427 14.5816 136.025 15.088 135.708 15.6966V19.9414H134.495Z" fill="white"/>
<path d="M145.515 20.1435C144.471 20.1435 143.637 19.7805 143.011 19.0546C142.385 18.3243 142.072 17.4049 142.072 16.2965C142.072 15.188 142.385 14.2708 143.011 13.5449C143.637 12.8189 144.471 12.456 145.515 12.456C146.554 12.456 147.386 12.8189 148.012 13.5449C148.638 14.2708 148.951 15.188 148.951 16.2965C148.951 17.4049 148.638 18.3243 148.012 19.0546C147.386 19.7805 146.554 20.1435 145.515 20.1435ZM145.515 19.1328C146.162 19.1328 146.678 18.8807 147.06 18.3765C147.443 17.8722 147.634 17.1789 147.634 16.2965C147.634 15.4184 147.443 14.7272 147.06 14.223C146.678 13.7187 146.162 13.4666 145.515 13.4666C144.863 13.4666 144.345 13.7187 143.963 14.223C143.58 14.7272 143.389 15.4184 143.389 16.2965C143.389 17.1789 143.58 17.8722 143.963 18.3765C144.345 18.8807 144.863 19.1328 145.515 19.1328Z" fill="white"/>
<path d="M153.535 20.1435C152.492 20.1435 151.657 19.7805 151.031 19.0546C150.405 18.3243 150.092 17.4049 150.092 16.2965C150.092 15.188 150.405 14.2708 151.031 13.5449C151.657 12.8189 152.492 12.456 153.535 12.456C154.574 12.456 155.406 12.8189 156.032 13.5449C156.658 14.2708 156.971 15.188 156.971 16.2965C156.971 17.4049 156.658 18.3243 156.032 19.0546C155.406 19.7805 154.574 20.1435 153.535 20.1435ZM153.535 19.1328C154.182 19.1328 154.698 18.8807 155.08 18.3765C155.463 17.8722 155.654 17.1789 155.654 16.2965C155.654 15.4184 155.463 14.7272 155.08 14.223C154.698 13.7187 154.182 13.4666 153.535 13.4666C152.883 13.4666 152.365 13.7187 151.983 14.223C151.6 14.7272 151.409 15.4184 151.409 16.2965C151.409 17.1789 151.6 17.8722 151.983 18.3765C152.365 18.8807 152.883 19.1328 153.535 19.1328Z" fill="white"/>
<path d="M160.512 19.9414V10.4346H158.334V9.41746H161.724V18.9307H164V19.9414H160.512Z" fill="white"/>
</svg>
