<svg width="597" height="520" viewBox="0 0 597 520" fill="none" xmlns="http://www.w3.org/2000/svg">
<path d="M0 0H345.516C345.516 0 597 0 597 268.74C597 520 345.516 520 345.516 520H0V0Z" fill="url(#paint0_linear)"/>
<defs>
<linearGradient id="paint0_linear" x1="-4.448e-06" y1="260" x2="597" y2="260" gradientUnits="userSpaceOnUse">
<stop stop-color="#7D2AEB"/>
<stop offset="1" stop-color="#7D2AEB" stop-opacity="0"/>
</linearGradient>
</defs>
</svg>
