<svg width="1440" height="947" viewBox="0 0 1440 947" fill="none" xmlns="http://www.w3.org/2000/svg">
<path d="M0 1654L-4.18432e-05 696.74C-4.18432e-05 696.74 -7.22986e-05 0.00012207 744.202 8.95402e-05C1440 5.91259e-05 1440 696.74 1440 696.74L1440 1654L0 1654Z" fill="url(#paint0_linear)"/>
<defs>
<linearGradient id="paint0_linear" x1="720" y1="1654" x2="720" y2="0.000102921" gradientUnits="userSpaceOnUse">
<stop stop-color="#7D2AEB"/>
<stop offset="1" stop-color="#7D2AEB" stop-opacity="0"/>
</linearGradient>
</defs>
</svg>
