<svg width="202" height="16" viewBox="0 0 202 16" fill="none" xmlns="http://www.w3.org/2000/svg">
<path d="M2.2 13.392C0.866667 12.0373 0.2 10.3947 0.2 8.464C0.2 6.53333 0.866667 4.89067 2.2 3.536C3.52267 2.192 5.17067 1.52 7.144 1.52C9.11733 1.52 10.7653 2.192 12.088 3.536C13.4213 4.89067 14.088 6.53333 14.088 8.464C14.088 10.3947 13.4213 12.0373 12.088 13.392C10.7653 14.736 9.11733 15.408 7.144 15.408C5.17067 15.408 3.52267 14.736 2.2 13.392ZM7.144 14.288C8.808 14.288 10.1893 13.7227 11.288 12.592C12.408 11.4613 12.968 10.0907 12.968 8.48C12.968 6.85867 12.408 5.48267 11.288 4.352C10.1787 3.21067 8.79733 2.64 7.144 2.64C5.48 2.64 4.09333 3.21067 2.984 4.352C1.87467 5.49333 1.32 6.86933 1.32 8.48C1.32 10.0907 1.87467 11.4613 2.984 12.592C4.08267 13.7227 5.46933 14.288 7.144 14.288ZM9.432 10.032L10.04 10.96C9.42133 11.76 8.49867 12.16 7.272 12.16C6.12 12.16 5.18667 11.8187 4.472 11.136C3.768 10.4533 3.416 9.54133 3.416 8.4C3.416 7.344 3.76267 6.45333 4.456 5.728C5.14933 5.00267 6.01867 4.64 7.064 4.64C8.32267 4.64 9.26667 4.95467 9.896 5.584L9.304 6.592C8.74933 6.09067 8.06133 5.84 7.24 5.84C6.568 5.84 5.98667 6.08533 5.496 6.576C5.016 7.056 4.776 7.664 4.776 8.4C4.776 9.17867 5.02133 9.79733 5.512 10.256C6.01333 10.7253 6.632 10.96 7.368 10.96C8.2 10.96 8.888 10.6507 9.432 10.032ZM26.427 12H19.595V10.96C21.0457 9.54133 22.1123 8.41067 22.795 7.568C24.0003 6.05333 24.603 4.784 24.603 3.76C24.603 3.22667 24.4377 2.79467 24.107 2.464C23.787 2.12267 23.3443 1.952 22.779 1.952C22.2883 1.952 21.8563 2.112 21.483 2.432C21.1203 2.74133 20.8857 3.17867 20.779 3.744L19.691 3.296C19.819 2.496 20.1763 1.86133 20.763 1.392C21.3603 0.912 22.0697 0.672 22.891 0.672C23.8723 0.672 24.6297 0.954666 25.163 1.52C25.6963 2.08533 25.963 2.74667 25.963 3.504C25.963 4.944 25.275 6.47467 23.899 8.096C23.2803 8.82133 22.7843 9.36533 22.411 9.728C22.091 10.048 21.707 10.4053 21.259 10.8H26.427V12ZM35.4565 6.4C35.4565 8.21333 35.1525 9.62133 34.5445 10.624C33.9472 11.6267 33.0512 12.128 31.8565 12.128C30.6512 12.128 29.7338 11.616 29.1045 10.592C28.4965 9.55733 28.1925 8.16 28.1925 6.4C28.1925 4.65067 28.4912 3.25867 29.0885 2.224C29.6965 1.18933 30.6085 0.672 31.8245 0.672C33.0512 0.672 33.9578 1.18933 34.5445 2.224C35.1525 3.248 35.4565 4.64 35.4565 6.4ZM31.8565 10.928C32.6352 10.928 33.2005 10.5547 33.5525 9.808C33.9152 9.06133 34.0965 7.92533 34.0965 6.4C34.0965 4.88533 33.9098 3.75467 33.5365 3.008C33.1738 2.25067 32.6032 1.872 31.8245 1.872C30.3098 1.872 29.5525 3.38133 29.5525 6.4C29.5525 9.41867 30.3205 10.928 31.8565 10.928ZM43.8958 12H37.0638V10.96C38.5144 9.54133 39.5811 8.41067 40.2638 7.568C41.4691 6.05333 42.0718 4.784 42.0718 3.76C42.0718 3.22667 41.9064 2.79467 41.5758 2.464C41.2558 2.12267 40.8131 1.952 40.2478 1.952C39.7571 1.952 39.3251 2.112 38.9518 2.432C38.5891 2.74133 38.3544 3.17867 38.2478 3.744L37.1598 3.296C37.2878 2.496 37.6451 1.86133 38.2318 1.392C38.8291 0.912 39.5384 0.672 40.3598 0.672C41.3411 0.672 42.0984 0.954666 42.6318 1.52C43.1651 2.08533 43.4318 2.74667 43.4318 3.504C43.4318 4.944 42.7438 6.47467 41.3678 8.096C40.7491 8.82133 40.2531 9.36533 39.8798 9.728C39.5598 10.048 39.1758 10.4053 38.7278 10.8H43.8958V12ZM46.0133 3.856L45.3413 2.816L48.0293 0.735999H48.9253V12H47.6453V2.576L46.0133 3.856ZM56.1175 11.984V0.815999C57.6002 0.773333 58.6242 0.752 59.1895 0.752C60.4055 0.752 61.3068 0.997333 61.8935 1.488C62.4908 1.968 62.7895 2.64533 62.7895 3.52C62.7895 4.17067 62.6188 4.71467 62.2775 5.152C61.9362 5.58933 61.4668 5.90933 60.8695 6.112V6.144C61.5948 6.26133 62.1602 6.54933 62.5655 7.008C62.9815 7.46667 63.1895 8.064 63.1895 8.8C63.1895 9.86667 62.8268 10.6773 62.1015 11.232C61.3762 11.776 60.3842 12.048 59.1255 12.048C57.8988 12.048 56.8962 12.0267 56.1175 11.984ZM59.2855 6.896H57.4775V10.704C57.9148 10.7467 58.4908 10.768 59.2055 10.768C60.0482 10.768 60.6935 10.5973 61.1415 10.256C61.6002 9.904 61.8295 9.392 61.8295 8.72C61.8295 8.13333 61.6055 7.68533 61.1575 7.376C60.7202 7.056 60.0962 6.896 59.2855 6.896ZM59.1575 2.032C58.8375 2.032 58.2775 2.048 57.4775 2.08V5.696H59.2695C59.8988 5.696 60.4162 5.53067 60.8215 5.2C61.2268 4.85867 61.4295 4.4 61.4295 3.824C61.4295 2.62933 60.6722 2.032 59.1575 2.032ZM71.0005 10.032L71.6085 10.96C70.9898 11.76 70.0672 12.16 68.8405 12.16C67.6885 12.16 66.7552 11.8187 66.0405 11.136C65.3365 10.4533 64.9845 9.54133 64.9845 8.4C64.9845 7.344 65.3312 6.45333 66.0245 5.728C66.7178 5.00267 67.5872 4.64 68.6325 4.64C69.8912 4.64 70.8352 4.95467 71.4645 5.584L70.8725 6.592C70.3178 6.09067 69.6298 5.84 68.8085 5.84C68.1365 5.84 67.5552 6.08533 67.0645 6.576C66.5845 7.056 66.3445 7.664 66.3445 8.4C66.3445 9.17867 66.5898 9.79733 67.0805 10.256C67.5818 10.7253 68.2005 10.96 68.9365 10.96C69.7685 10.96 70.4565 10.6507 71.0005 10.032ZM78.5664 10.208L78.9664 11.216C78.273 11.8453 77.3717 12.16 76.2624 12.16C75.089 12.16 74.1557 11.8187 73.4624 11.136C72.7584 10.4533 72.4064 9.54133 72.4064 8.4C72.4064 7.32267 72.737 6.42667 73.3984 5.712C74.049 4.99733 74.9557 4.64 76.1184 4.64C77.0784 4.64 77.873 4.94933 78.5024 5.568C79.1424 6.176 79.4624 6.96533 79.4624 7.936C79.4624 8.24533 79.4357 8.53333 79.3824 8.8H73.8464C73.8997 9.472 74.1504 10 74.5984 10.384C75.057 10.768 75.6437 10.96 76.3584 10.96C77.297 10.96 78.033 10.7093 78.5664 10.208ZM76.0544 5.84C75.425 5.84 74.9024 6.016 74.4864 6.368C74.081 6.72 73.841 7.184 73.7664 7.76H78.1344C78.1024 7.16267 77.8997 6.69333 77.5264 6.352C77.1637 6.01067 76.673 5.84 76.0544 5.84ZM91.2726 12H89.9926V6H86.0726V12H84.7926V4.8H91.2726V12ZM94.8695 15.2H93.5895V4.8H94.8695V5.648C95.1255 5.34933 95.4775 5.10933 95.9255 4.928C96.3735 4.736 96.8375 4.64 97.3175 4.64C98.3415 4.64 99.1468 4.98133 99.7335 5.664C100.342 6.336 100.646 7.21067 100.646 8.288C100.646 9.38667 100.299 10.3093 99.6055 11.056C98.9228 11.792 98.0215 12.16 96.9015 12.16C96.0375 12.16 95.3602 11.9947 94.8695 11.664V15.2ZM96.9495 5.84C96.0962 5.84 95.4028 6.17067 94.8695 6.832V10.4C95.4348 10.7733 96.0748 10.96 96.7895 10.96C97.5468 10.96 98.1495 10.72 98.5975 10.24C99.0562 9.74933 99.2855 9.11467 99.2855 8.336C99.2855 7.57867 99.0775 6.976 98.6615 6.528C98.2455 6.06933 97.6748 5.84 96.9495 5.84ZM102.864 6.32L102.528 5.296C103.243 4.85867 104.043 4.64 104.928 4.64C105.899 4.64 106.603 4.88 107.04 5.36C107.477 5.84 107.696 6.58133 107.696 7.584V12H106.48V11.072C105.915 11.7653 105.147 12.112 104.176 12.112C103.515 12.112 102.981 11.9147 102.576 11.52C102.171 11.1147 101.968 10.5707 101.968 9.888C101.968 9.184 102.219 8.62933 102.72 8.224C103.221 7.808 103.877 7.6 104.688 7.6C105.445 7.6 106.043 7.75467 106.48 8.064C106.48 7.25333 106.368 6.672 106.144 6.32C105.92 5.968 105.488 5.792 104.848 5.792C104.197 5.792 103.536 5.968 102.864 6.32ZM104.624 10.96C105.339 10.96 105.957 10.6507 106.48 10.032V9.12C106.032 8.8 105.493 8.64 104.864 8.64C104.427 8.64 104.059 8.74667 103.76 8.96C103.472 9.16267 103.328 9.45067 103.328 9.824C103.328 10.176 103.44 10.4533 103.664 10.656C103.899 10.8587 104.219 10.96 104.624 10.96ZM109.84 12V4.8C109.893 4.8 109.968 4.8 110.064 4.8C110.16 4.78933 110.298 4.784 110.48 4.784C110.661 4.77333 110.826 4.768 110.976 4.768C111.765 4.74667 112.256 4.736 112.448 4.736C114.517 4.736 115.552 5.35467 115.552 6.592C115.552 7.01867 115.418 7.38667 115.152 7.696C114.885 7.99467 114.538 8.176 114.112 8.24V8.272C115.232 8.47467 115.792 9.04 115.792 9.968C115.792 11.3653 114.688 12.064 112.48 12.064C112.373 12.064 111.904 12.0533 111.072 12.032C110.912 12.032 110.736 12.0267 110.544 12.016C110.352 12.016 110.202 12.0107 110.096 12C109.989 12 109.904 12 109.84 12ZM112.656 8.768H111.12V10.976C111.888 11.008 112.378 11.024 112.592 11.024C113.818 11.024 114.432 10.64 114.432 9.872C114.432 9.136 113.84 8.768 112.656 8.768ZM112.544 5.776C112.234 5.776 111.76 5.792 111.12 5.824V7.968H112.736C113.173 7.968 113.525 7.86667 113.792 7.664C114.058 7.46133 114.192 7.18933 114.192 6.848C114.192 6.13333 113.642 5.776 112.544 5.776ZM118.13 6.32L117.794 5.296C118.508 4.85867 119.308 4.64 120.194 4.64C121.164 4.64 121.868 4.88 122.306 5.36C122.743 5.84 122.962 6.58133 122.962 7.584V12H121.746V11.072C121.18 11.7653 120.412 12.112 119.442 12.112C118.78 12.112 118.247 11.9147 117.842 11.52C117.436 11.1147 117.234 10.5707 117.234 9.888C117.234 9.184 117.484 8.62933 117.986 8.224C118.487 7.808 119.143 7.6 119.954 7.6C120.711 7.6 121.308 7.75467 121.746 8.064C121.746 7.25333 121.634 6.672 121.41 6.32C121.186 5.968 120.754 5.792 120.114 5.792C119.463 5.792 118.802 5.968 118.13 6.32ZM119.89 10.96C120.604 10.96 121.223 10.6507 121.746 10.032V9.12C121.298 8.8 120.759 8.64 120.13 8.64C119.692 8.64 119.324 8.74667 119.026 8.96C118.738 9.16267 118.594 9.45067 118.594 9.824C118.594 10.176 118.706 10.4533 118.93 10.656C119.164 10.8587 119.484 10.96 119.89 10.96ZM131.083 12.16C130.539 12.16 129.963 12.0693 129.355 11.888C128.768 11.696 128.352 11.4613 128.107 11.184L128.763 10.224C129.051 10.4587 129.392 10.6507 129.787 10.8C130.192 10.9387 130.56 11.008 130.891 11.008C131.446 11.008 131.899 10.9013 132.251 10.688C132.603 10.464 132.779 10.176 132.779 9.824C132.779 9.52533 132.651 9.296 132.395 9.136C132.15 8.976 131.808 8.896 131.371 8.896H130.155V7.856H131.291C131.654 7.856 131.952 7.76 132.187 7.568C132.422 7.36533 132.539 7.12 132.539 6.832C132.539 6.512 132.4 6.26133 132.123 6.08C131.846 5.888 131.472 5.792 131.003 5.792C130.246 5.792 129.526 6.05867 128.843 6.592L128.347 5.6C128.635 5.30133 129.035 5.06667 129.547 4.896C130.07 4.72533 130.619 4.64 131.195 4.64C132.048 4.64 132.71 4.81067 133.179 5.152C133.659 5.49333 133.899 5.968 133.899 6.576C133.899 7.408 133.478 7.97333 132.635 8.272V8.304C133.104 8.35733 133.472 8.544 133.739 8.864C134.006 9.17333 134.139 9.552 134.139 10C134.139 10.6613 133.856 11.1893 133.291 11.584C132.736 11.968 132 12.16 131.083 12.16ZM136.474 6.32L136.138 5.296C136.852 4.85867 137.652 4.64 138.538 4.64C139.508 4.64 140.212 4.88 140.65 5.36C141.087 5.84 141.306 6.58133 141.306 7.584V12H140.09V11.072C139.524 11.7653 138.756 12.112 137.786 12.112C137.124 12.112 136.591 11.9147 136.186 11.52C135.78 11.1147 135.578 10.5707 135.578 9.888C135.578 9.184 135.828 8.62933 136.33 8.224C136.831 7.808 137.487 7.6 138.298 7.6C139.055 7.6 139.652 7.75467 140.09 8.064C140.09 7.25333 139.978 6.672 139.754 6.32C139.53 5.968 139.098 5.792 138.458 5.792C137.807 5.792 137.146 5.968 136.474 6.32ZM138.234 10.96C138.948 10.96 139.567 10.6507 140.09 10.032V9.12C139.642 8.8 139.103 8.64 138.474 8.64C138.036 8.64 137.668 8.74667 137.37 8.96C137.082 9.16267 136.938 9.45067 136.938 9.824C136.938 10.176 137.05 10.4533 137.274 10.656C137.508 10.8587 137.828 10.96 138.234 10.96ZM152.569 12H143.449V4.8H144.729V10.8H147.369V4.8H148.649V10.8H151.289V4.8H152.569V10.8H153.769V13.76H152.569V12ZM160.608 6.64L156.448 12H155.168V4.8H156.448V10.16L160.608 4.8H161.888V12H160.608V6.64ZM173.335 12H164.215V4.8H165.495V10.8H168.135V4.8H169.415V10.8H172.055V4.8H173.335V10.8H174.535V13.76H173.335V12ZM181.613 10.208L182.013 11.216C181.32 11.8453 180.419 12.16 179.309 12.16C178.136 12.16 177.203 11.8187 176.509 11.136C175.805 10.4533 175.453 9.54133 175.453 8.4C175.453 7.32267 175.784 6.42667 176.445 5.712C177.096 4.99733 178.003 4.64 179.165 4.64C180.125 4.64 180.92 4.94933 181.549 5.568C182.189 6.176 182.509 6.96533 182.509 7.936C182.509 8.24533 182.483 8.53333 182.429 8.8H176.893C176.947 9.472 177.197 10 177.645 10.384C178.104 10.768 178.691 10.96 179.405 10.96C180.344 10.96 181.08 10.7093 181.613 10.208ZM179.101 5.84C178.472 5.84 177.949 6.016 177.533 6.368C177.128 6.72 176.888 7.184 176.813 7.76H181.181C181.149 7.16267 180.947 6.69333 180.573 6.352C180.211 6.01067 179.72 5.84 179.101 5.84ZM190.806 12H189.526V8.96H185.526V12H184.246V4.8H185.526V7.76H189.526V4.8H190.806V12ZM195.441 12H193.121V4.8H194.401V6.96H195.585C196.566 6.96 197.286 7.184 197.745 7.632C198.203 8.06933 198.433 8.672 198.433 9.44C198.433 10.1653 198.193 10.7733 197.713 11.264C197.254 11.7547 196.497 12 195.441 12ZM201.089 12H199.809V4.8H201.089V12ZM195.345 8.16H194.401V10.8H195.329C195.937 10.8 196.379 10.6933 196.657 10.48C196.934 10.2667 197.073 9.936 197.073 9.488C197.073 8.60267 196.497 8.16 195.345 8.16Z" fill="white"/>
</svg>
